<svg width="16" height="16" viewBox="0 0 16 16" fill="none" xmlns="http://www.w3.org/2000/svg">
<path d="M16 7.50043H8.49976V0.00769043H7.50073V7.50043H0V8.49949H7.50073V15.9922H8.49976V8.49949H16V7.50043Z" fill="black"/>
</svg>
