<svg width="13" height="8" viewBox="0 0 13 8" fill="none" xmlns="http://www.w3.org/2000/svg">
<path d="M5.85641 7.38204L0.266765 1.60588C-0.0889874 1.23845 -0.0889874 0.642718 0.266765 0.275463C0.622201 -0.0918217 1.19868 -0.0918217 1.55409 0.275463L6.50007 5.38647L11.4459 0.275612C11.8015 -0.0916726 12.3779 -0.0916726 12.7333 0.275612C13.0889 0.642897 13.0889 1.2386 12.7333 1.60603L7.14359 7.38219C6.96578 7.56583 6.733 7.65755 6.5001 7.65755C6.26708 7.65755 6.03412 7.56565 5.85641 7.38204Z" fill="black"/>
</svg>
