<svg width="31" height="30" viewBox="0 0 31 30" fill="none" xmlns="http://www.w3.org/2000/svg">
<path d="M8.25011 7.62879C7.57717 8.30173 7.57719 9.39275 8.25012 10.0657L13.1239 14.9395L8.25012 19.8132C7.57718 20.4862 7.57719 21.5772 8.25012 22.2501C8.92304 22.923 10.0141 22.9231 10.687 22.2501L15.5608 17.3763L20.4346 22.2501C21.1075 22.923 22.1985 22.9231 22.8714 22.2501C23.5444 21.5772 23.5444 20.4862 22.8714 19.8132L17.9977 14.9395L22.8714 10.0657C23.5444 9.39273 23.5444 8.30171 22.8714 7.62879C22.1985 6.95586 21.1075 6.95585 20.4346 7.62879L15.5608 12.5026L10.687 7.62879C10.0141 6.95586 8.92305 6.95585 8.25011 7.62879Z" fill="#38B4FF"/>
</svg>
