<svg width="1226" height="1128" viewBox="0 0 1226 1128" fill="none" xmlns="http://www.w3.org/2000/svg">
<path d="M1226 0H13.8457C4.86377 27.0093 0 55.9009 0 85.9297C0 209.88 82.8691 314.461 196.186 347.213C341.28 393.971 387.26 475.36 341.07 629.294C331.54 657.867 326.37 688.441 326.37 720.222C326.37 878.701 454.75 1007.17 613.11 1007.17C668.38 1007.17 719.99 991.528 763.76 964.423C874.15 899.387 939.73 921.782 994.4 1011.16C1034.9 1081.02 1110.45 1128 1196.97 1128C1206.8 1128 1216.49 1127.39 1226 1126.22V0Z" fill="#38B4FF"/>
</svg>
